<svg width="260" height="261" viewBox="0 0 260 261" fill="none" xmlns="http://www.w3.org/2000/svg">
<path d="M5.07812 0C2.28516 0 0 2.28516 0 5.07812C0 7.87109 2.28516 10.1562 5.07812 10.1562C7.87109 10.1562 10.1562 7.87109 10.1562 5.07812C10.1562 2.28516 7.87109 0 5.07812 0Z" transform="translate(145.594 117.812)" fill="black"/>
<path d="M5.07812 0C2.28516 0 0 2.28516 0 5.07812C0 7.87109 2.28516 10.1562 5.07812 10.1562C7.87109 10.1562 10.1562 7.87109 10.1562 5.07812C10.1562 2.28516 7.87109 0 5.07812 0Z" transform="translate(125.281 87.3438)" fill="black"/>
<path d="M5.07812 0C2.28516 0 0 2.28516 0 5.07812C0 7.87109 2.28516 10.1562 5.07812 10.1562C7.87109 10.1562 10.1562 7.87109 10.1562 5.07812C10.1562 2.28516 7.87109 0 5.07812 0Z" transform="translate(64.344 219.375)" fill="black"/>
<path d="M65.5078 101.055H178.75L196.27 90.3906L201.602 75.6641L196.27 59.9219L176.211 20.8203L167.07 0H133.555L106.133 9.64844L75.6641 20.3125L28.9453 15.2344L0 68.0469L5.83984 88.3594L22.8516 101.055H65.5078Z" transform="translate(29.3049 153.867)" fill="#FFB401" stroke="black" stroke-miterlimit="10"/>
<path d="M206.11 207.035L140.906 91.1016V29.6055C146.797 27.5234 151.063 21.8867 151.063 15.2344C151.063 6.85547 144.207 0 135.828 0H74.8909C66.512 0 59.6565 6.85547 59.6565 15.2344C59.6565 21.8359 63.9221 27.5234 69.8127 29.6055V91.1016L4.60962 207.035C-1.63648 218.156 -1.53491 231.41 4.91431 242.43C11.3635 253.398 22.7893 260 35.5862 260H175.133C187.879 260 199.356 253.398 205.805 242.379C212.254 231.359 212.356 218.156 206.11 207.035ZM79.3088 94.9102C79.7151 94.1484 79.969 93.2852 79.969 92.4219V30.4688H85.0471C87.8401 30.4688 90.1252 28.1836 90.1252 25.3906C90.1252 22.5977 87.8401 20.3125 85.0471 20.3125H74.8909C72.0979 20.3125 69.8127 18.0273 69.8127 15.2344C69.8127 12.4414 72.0979 10.1562 74.8909 10.1562H135.828C138.621 10.1562 140.906 12.4414 140.906 15.2344C140.906 18.0273 138.621 20.3125 135.828 20.3125H125.672C122.879 20.3125 120.594 22.5977 120.594 25.3906C120.594 28.1836 122.879 30.4688 125.672 30.4688H130.75V92.4219C130.75 93.2852 130.953 94.1484 131.41 94.9102L161.321 148.129C143.039 146.656 124.809 150.363 108.102 158.996C86.5705 170.117 62.6526 172.098 40.0549 164.684L79.3088 94.9102ZM197.071 237.25C192.449 245.121 184.274 249.844 175.133 249.844H35.5862C26.4456 249.844 18.2698 245.121 13.6487 237.25C9.02759 229.379 8.9768 219.934 13.4456 211.961L34.9768 173.672C45.4377 177.328 56.2034 179.156 67.1721 179.156C68.7971 179.156 70.4221 179.105 72.0471 179.055C86.2151 178.344 99.926 174.637 112.723 167.984C129.887 159.098 148.778 156.051 167.465 159.047L197.274 212.012C201.742 219.934 201.641 229.379 197.071 237.25Z" transform="translate(25)" fill="black"/>
<path d="M9.54688 19.0938C14.8195 19.0938 19.0938 14.8195 19.0938 9.54687C19.0938 4.27428 14.8195 0 9.54688 0C4.27428 0 0 4.27428 0 9.54687C0 14.8195 4.27428 19.0938 9.54688 19.0938Z" transform="translate(101.414 122.891)" fill="#FFB401" stroke="black" stroke-miterlimit="10"/>
<path d="M15.2344 0C6.85547 0 0 6.85547 0 15.2344C0 23.6133 6.85547 30.4688 15.2344 30.4688C23.6133 30.4688 30.4688 23.6133 30.4688 15.2344C30.4688 6.85547 23.6133 0 15.2344 0ZM15.2344 20.3125C12.4414 20.3125 10.1562 18.0273 10.1562 15.2344C10.1562 12.4414 12.4414 10.1562 15.2344 10.1562C18.0273 10.1562 20.3125 12.4414 20.3125 15.2344C20.3125 18.0273 18.0273 20.3125 15.2344 20.3125Z" transform="translate(94.8127 117.812)" fill="black"/>
<path d="M106.641 0H5.07812C2.28516 0 0 2.28516 0 5.07812C0 7.87109 2.28516 10.1562 5.07812 10.1562H106.641C109.434 10.1562 111.719 7.87109 111.719 5.07812C111.719 2.28516 109.434 0 106.641 0Z" transform="translate(84.6565 219.375)" fill="black"/>
</svg>
