{
    "image": {
        "data": {
            "base": "./icon/",
            "file": "marker.svg",
            "alt": "Описание изображения"
        }
    },
    "location_caption": {
        "data": "Москва"
    },
    "btn_call": {
        "data": "Заказать звонок?"
    }
}
