{
    "caption": {
        "data": "Фильтры и системы очистки для воды"
    },
    "description": {
        "data": "Полный комплекс услуг по очистке воды для квартиры и коттеджа."
    },
    "apartment": {
        "data": {
            "caption": "От 14 000 руб.",
            "reference": {
                "name": "Решение для квартиры",
                "link": "#"
            },
            "image": {
                "base": "./icon/",
                "file": "building-aqua.svg",
                "alt": "Описание изображения"
            }
        }
    },
    "cottage": {
        "data": {
            "caption": "От 35 000 руб.",
            "reference": {
                "name": "Решение для коттеджа",
                "link": "#"
            },
            "image": {
                "base": "./icon/",
                "file": "house-aqua.svg",
                "alt": "Описание изображения"
            }
        }
    },
    "sale": {
        "data": "Сезонная скидка 15%"
    },
    "image": {
        "data": {
            "base": "./images/",
            "file": "offer.jpg",
            "alt": "Описание изображения"
        }
    }
}
